2.321439834403991824e+02
2.548126338958740078e+01
1.655945163726806513e+01
1.464005278587341330e+01
1.365681995391845760e+01
1.247565849304199226e+01
1.158695307731628432e+01
1.072389692306518505e+01
1.022367644309997559e+01
9.532897052764893076e+00
9.092283258438110138e+00
8.645371918678284473e+00
8.371518678665161417e+00
8.003730258941651243e+00
7.802577652931213414e+00
7.570978469848633097e+00
7.387414360046387074e+00
7.225660324096679688e+00
6.865661416053772115e+00
6.729193177223205424e+00
6.679735898971557617e+00
6.613832335472107360e+00
6.535680794715881703e+00
6.435407719612121547e+00
6.425627593994140518e+00
6.376001911163330149e+00
6.301264982223511169e+00
6.243249053955078232e+00
6.081013278961181712e+00
5.983012666702270721e+00
5.975171680450439560e+00
5.896881179809570384e+00
5.785878248214721964e+00
5.857104687690735112e+00
5.755772056579590235e+00
5.722121458053589294e+00
5.693178286552429412e+00
5.684156022071838343e+00
5.677955040931701447e+00
5.577741951942443599e+00
5.570586938858031800e+00
5.590785188674926687e+00
5.573332080841064240e+00
5.555488018989563237e+00
5.565336136817932378e+00
5.510939340591431090e+00
5.470010895729064515e+00
5.461640324592590190e+00
5.491633687019348287e+00
5.429784951210021582e+00
