2.732029413604736305e+02
2.813758148193359432e+01
1.865099098205566364e+01
1.658868531227111731e+01
1.532994195938110416e+01
1.439157340049743716e+01
1.374231960296630817e+01
1.278546295166015589e+01
1.204399978637695234e+01
1.148155005455017097e+01
1.101463806152343672e+01
1.052351519584655826e+01
1.016023430824279750e+01
9.824525899887085245e+00
9.664322261810303516e+00
9.384550552368164489e+00
9.239576935768127441e+00
9.005624904632568928e+00
8.588596863746642995e+00
8.571057310104370330e+00
8.404228963851927858e+00
8.340165009498596405e+00
8.186875495910644673e+00
8.208669204711913636e+00
8.208902883529663796e+00
8.077020092010497976e+00
7.989252104759215989e+00
7.941696276664734100e+00
7.888717341423034490e+00
7.832836790084838796e+00
7.832175683975219904e+00
7.663851766586303960e+00
7.559942717552185165e+00
7.547161898612976039e+00
7.519452729225158727e+00
7.540841507911681951e+00
7.467275552749633505e+00
7.462745251655579004e+00
7.435551800727844274e+00
7.317458891868591664e+00
7.177728977203368999e+00
7.175092720985412953e+00
7.266593136787414586e+00
7.227136011123657333e+00
7.138212966918945135e+00
7.057641859054565536e+00
7.091027755737304261e+00
7.075931344032287740e+00
7.004830484390258682e+00
7.019328255653380921e+00
