2.551590976333618244e+02
2.719973917007446218e+01
1.856670972824096566e+01
1.669788095474243050e+01
1.558893283843994126e+01
1.450035492897033684e+01
1.350346272468566866e+01
1.270142608642578175e+01
1.199951788902282779e+01
1.132400588989257884e+01
1.082919542312622063e+01
1.038399621009826745e+01
1.001973296165466287e+01
9.722118349075318022e+00
9.461969604492187713e+00
9.253010740280151580e+00
9.145256328582764382e+00
8.878823375701903942e+00
8.991133041381836222e+00
8.398117542266845703e+00
8.312121281623840119e+00
8.190419192314147168e+00
8.262139935493468812e+00
8.128490624427795908e+00
8.037466578483581259e+00
8.019894466400145916e+00
7.927411298751831481e+00
7.894237818717956934e+00
7.872856044769287465e+00
7.804214062690735254e+00
7.716501202583312846e+00
7.737706055641174530e+00
7.731075811386108221e+00
7.629594621658324805e+00
7.610565180778503525e+00
7.631288108825683203e+00
7.548831515312194540e+00
7.515339131355285751e+00
7.302114915847778498e+00
7.337036209106445384e+00
7.222091798782348526e+00
7.200973534584045765e+00
7.224963150024414027e+00
7.211328105926513743e+00
7.092880482673645126e+00
7.154774851799011515e+00
7.087131323814392481e+00
7.006362247467040838e+00
6.967289905548096129e+00
6.921666340827941966e+00
